20

7
fUw56Ea_-81934048
tTzL33Qo-04108872
7UdbgjwN-35217778
a0cqjQON-60205707
r0_S0KPg-59318516
c1exP0NW-07582936
0qYYteBM-52464145
1 7 4 2 6 3 5
4 3 2 1 7 5 6
2 5 3 4 6 1 7
3 1 7 6 5 4 2
6 5 7 4 2 3 1
7 4 3 2 6 1 5

5
NWgBML9_-03246363
sBnuV62O-23330274
0Xc1zmr9-45584588
aSVK41d0-82772548
Ct_gH0RB-01355588
2 4 3 5 1
5 1 3 2 4
1 2 5 4 3
3 4 1 5 2
2 1 5 3 4

7
e7XtDZ5F-38266084
NGLRRkhd-03785845
yAWvGUYA-38698870
RQLvY1HK-15784382
o4Ahe5J7-65924823
z8XobmTa-51984500
SyDLMu6I-96514644
6 3 2 1 7 5 4
6 3 7 5 1 2 4
1 7 2 4 5 3 6
2 4 5 1 6 7 3
5 4 2 6 3 1 7
1 7 4 2 6 5 3
6 7 4 3 2 1 5

9
5BFISKll-53404046
7IBqtPeQ-08023149
oavwrqJB-00516776
3V7MtSIf-41496738
3dtV3SW1-16236599
gf2XWELf-92420513
NvgzoZe3-98400797
YQRAdTyu-58930963
PAHIfPsp-22163563
8 9 7 6 4 5 1 3 2
4 3 8 6 1 9 7 5 2
9 4 2 1 6 8 7 3 5
7 8 5 6 9 2 4 1 3
8 7 2 5 6 9 4 1 3
2 6 8 5 7 4 1 9 3
5 9 4 1 3 6 7 2 8
2 1 8 5 4 7 9 3 6

6
sMb4EsdX-80324067
Pz6xpwdc-13116294
eoOV9KIs-60567325
ujbqOoHd-73734410
Au_Q7N0b-62333655
2JAaYXYT-34553427
3 6 2 1 5 4
3 2 5 1 4 6
5 4 3 1 2 6
3 2 5 6 4 1
6 5 3 4 2 1
4 2 3 6 1 5
1 2 4 6 5 3

6
b87MKVds-01554663
yXFvaD4H-34790378
hJbspBV6-46376373
O6RhNnR3-33059967
OhMDPm6D-72717729
8BheBTHZ-49396764
4 6 5 3 2 1
2 4 1 3 5 6
1 3 5 2 6 4

4
kObJLjB8-74697889
gs7xXGbu-98187984
8xxFT4XN-21576111
n8p4ZAH5-74991986
2 4 1 3
1 2 3 4
4 2 1 3
3 1 2 4
3 4 1 2
1 2 3 4

7
JDrt_5tc-79772729
CoQbLHHe-06697663
2gUunJCR-46565376
bA8kRIWR-90068288
BQDMsC80-46322567
V1nTeTcF-53989989
qVfNQeSa-07633938
5 2 7 4 1 3 6
2 1 4 5 3 6 7
3 7 5 6 1 2 4
3 7 1 5 6 4 2
6 5 4 3 7 2 1

7
vTvhlxce-82588515
mRAmUMDN-89869020
YiJxhSiB-24643531
mTOMmBK4-34576420
ZjgmF7tO-78497888
liyx_1R4-59854359
RX_2p28I-04983038
6 5 3 7 2 1 4
2 3 4 1 5 6 7
3 2 6 5 4 7 1
7 5 4 2 3 1 6
3 4 6 2 1 7 5

10
2fhRDEkX-45609633
bHmEkIPc-56839028
RTSLhu9L-17235134
ScDDw5Mr-53534573
0uq7eZzS-16639757
zMGMyNjY-90039609
Icr21M12-66853117
RrTaTZWg-83221065
hNig6W4d-69636749
glS1Qdnf-98356105
7 3 2 6 1 9 10 5 4 8
5 10 2 3 9 1 6 4 7 8
6 4 8 9 2 10 5 3 7 1
5 8 10 1 3 4 6 2 7 9
2 5 9 1 4 6 10 7 8 3
2 4 3 6 1 9 10 8 5 7
9 6 1 7 4 2 3 8 5 10

6
UgYXqIcn-04952024
JJnPROcT-75790957
ARaXf6DT-49253781
xk0DECYF-94188863
9TJEhf19-42285130
lHttL3KX-48935329
3 1 2 5 4 6
3 5 4 6 1 2
5 2 3 6 4 1

4
WUgn3s2a-05187593
2Na1Tj8I-68734598
k2kwE0ZC-28724244
blPnRXXQ-70107272
1 3 4 2
4 3 1 2
2 1 4 3
1 2 4 3
1 3 4 2

10
dJtWed0U-05417480
HSTmBY6P-11629234
kCMpla2I-51454420
ibXfUwy3-18471407
U2FMesFn-44906911
o_zxcTL4-61035788
HQ0L0DJ3-57912556
KN0rX2GP-98783285
MudRtChG-89559871
AVv1Nips-23108696
10 8 2 9 4 3 7 1 5 6
9 3 2 6 8 7 10 5 4 1
9 2 3 1 5 6 8 4 10 7

10
9HLKMRSv-33138800
myGNvy_m-38636668
nabTxzCH-59932698
cuuQhb4b-71064109
NbK8zv4B-89867691
YbElRIGc-93580419
roJGe5wX-41653250
vTuizCeh-81641967
I1ZnnNOW-48830619
hrnELqm9-41582492
3 4 10 1 2 6 8 9 5 7
3 8 2 4 1 10 9 7 5 6
5 9 3 7 10 1 6 2 8 4

9
Nli1zfLh-10162711
6ARwrooB-35544822
hiMqewXH-48092496
1WoCuXsd-61800519
jyxN00n8-41386699
7LInzzy_-00465081
lClouX5f-12159520
lGQdDvO0-29981372
zL0zL9bX-29894185
2 4 3 6 7 9 8 5 1
5 2 3 1 6 4 7 8 9
9 2 7 6 5 8 4 1 3
3 9 5 8 2 7 1 4 6
9 1 6 5 4 3 8 2 7
1 4 5 9 8 2 6 7 3
5 3 6 1 9 4 8 7 2
9 1 8 6 5 2 3 4 7
1 2 8 6 3 4 5 9 7

4
Y3cfgMJN-82954877
VF8qJIcY-93517933
YcgY34ln-47882760
KFrfc9qZ-60814805
2 4 3 1
2 3 4 1
3 2 4 1

10
ySlPl0fX-97221522
SzEFWIZm-64591876
JEapAiEq-86083563
LVNRnrIb-16197966
j5tfmZvc-78959875
OYjx1iX6-22617854
GID1ibyU-10011552
0LiOJS2j-97692849
OPKJGngX-40409303
Mo8d1Cgb-42821091
9 3 1 4 6 10 5 2 7 8
2 10 5 9 6 8 3 4 7 1
7 9 10 6 3 8 4 1 2 5
9 6 7 10 2 3 5 4 1 8
10 2 8 3 6 4 7 9 5 1
9 4 10 5 6 8 3 2 7 1

4
LEIsAfDF-45586475
cFCfIQ4g-76916964
yTLHlRD8-63671282
8BdZ_N8R-94936800
3 2 4 1
4 3 1 2
2 1 3 4
1 4 2 3
3 1 2 4
3 2 4 1

5
7wB7AuV1-16170132
YK3oPAli-24341911
pOdsjFYW-14788267
d5CkKIla-47394774
Oms3ZjV2-29110787
2 5 4 3 1
1 2 3 4 5
5 1 3 2 4
2 5 4 3 1
4 1 2 5 3
1 5 3 4 2
5 4 1 3 2
3 1 4 2 5

7
kO8J3Fr8-88861683
6agfOzTP-81126219
I2JdB1uX-17146435
ggZrLEKb-51669517
NbkO3fho-40693624
9BuryB3V-28810684
r3r3Xey5-23746539
2 6 1 5 4 7 3
2 1 3 4 6 7 5
1 6 7 4 2 5 3
4 2 7 1 3 6 5
5 3 6 7 1 4 2
5 1 7 6 3 4 2
7 1 2 5 3 6 4
