20

4
Patricia
John
Jennifer
Michael
3 4 2 1
3 1 4 2
4 1 2 3
3 4 2 1
3 4 2 1
4 2 1 3
3 2 4 1

8
Anthony
Sandra
Mark
Margaret
Donald
Ashley
Kimberly
Andrew
3 8 2 7 6 1 5 4
6 1 7 3 5 8 4 2
6 5 7 4 1 2 3 8
1 2 6 3 4 8 7 5
7 4 1 5 2 8 3 6
5 7 2 4 6 8 3 1
6 2 8 7 1 4 5 3
7 6 3 4 1 5 2 8

6
Christopher
Karen
Charles
Lisa
Nancy
Matthew
3 4 2 5 6 1
1 6 5 3 2 4
3 1 4 2 6 5

6
Christopher
Karen
Charles
Lisa
Nancy
Matthew
3 4 2 5 6 1
1 6 5 3 2 4
3 1 4 2 6 5
2 4 6 5 1 3
1 3 2 6 5 4

9
Anthony
Sandra
Mark
Margaret
Donald
Ashley
Kimberly
Andrew
Emily
4 1 5 8 6 2 9 7 3
2 9 4 3 6 7 1 8 5
2 5 1 6 8 9 7 3 4
9 1 4 2 3 8 5 6 7

3
Robert
Patricia
John
3 1 2
2 3 1
2 1 3

5
Barbara
Richard
Susan
Joseph
Jessica
4 1 5 3 2
4 3 1 5 2
5 3 4 1 2
4 5 1 2 3
4 1 5 3 2
2 4 3 5 1
1 3 4 2 5

3
Susan
Joseph
Jessica
3 1 2
2 3 1
2 1 3
1 2 3
3 2 1
2 1 3

5
Robert
Patricia
John
Jennifer
Michael
4 1 5 3 2
4 3 1 5 2
5 3 4 1 2
4 5 1 2 3
4 1 5 3 2

9
Sarah
Christopher
Karen
Charles
Lisa
Nancy
Matthew
Betty
Anthony
4 1 5 8 6 2 9 7 3
2 9 4 3 6 7 1 8 5
2 5 1 6 8 9 7 3 4
9 1 4 2 3 8 5 6 7

8
James
Mary
Robert
Patricia
John
Jennifer
Michael
Linda
3 8 2 7 6 1 5 4
6 1 7 3 5 8 4 2
6 5 7 4 1 2 3 8

8
Patricia
John
Jennifer
Michael
Linda
David
Elizabeth
William
3 8 2 7 6 1 5 4
6 1 7 3 5 8 4 2
6 5 7 4 1 2 3 8
1 2 6 3 4 8 7 5
7 4 1 5 2 8 3 6
5 7 2 4 6 8 3 1
6 2 8 7 1 4 5 3
7 6 3 4 1 5 2 8

4
Mary
Robert
Patricia
John
3 4 2 1
3 1 4 2
4 1 2 3
3 4 2 1
3 4 2 1
4 2 1 3
3 2 4 1

5
Patricia
John
Jennifer
Michael
Linda
4 1 5 3 2
4 3 1 5 2
5 3 4 1 2
4 5 1 2 3
4 1 5 3 2
2 4 3 5 1

8
Matthew
Betty
Anthony
Sandra
Mark
Margaret
Donald
Ashley
3 8 2 7 6 1 5 4
6 1 7 3 5 8 4 2
6 5 7 4 1 2 3 8
1 2 6 3 4 8 7 5
7 4 1 5 2 8 3 6
5 7 2 4 6 8 3 1
6 2 8 7 1 4 5 3
7 6 3 4 1 5 2 8

6
Charles
Lisa
Nancy
Matthew
Betty
Anthony
3 4 2 5 6 1
1 6 5 3 2 4
3 1 4 2 6 5
2 4 6 5 1 3
1 3 2 6 5 4

5
Matthew
Betty
Anthony
Sandra
Mark
4 1 5 3 2
4 3 1 5 2
5 3 4 1 2

8
Sandra
Mark
Margaret
Donald
Ashley
Kimberly
Andrew
Emily
3 8 2 7 6 1 5 4
6 1 7 3 5 8 4 2
6 5 7 4 1 2 3 8
1 2 6 3 4 8 7 5

4
Charles
Lisa
Nancy
Matthew
3 4 2 1
3 1 4 2
4 1 2 3
3 4 2 1
3 4 2 1
4 2 1 3

7
Sarah
Christopher
Karen
Charles
Lisa
Nancy
Matthew
4 1 5 7 6 2 3
6 2 3 5 1 4 7
7 6 5 1 4 2 3
3 1 4 2 5 6 7
6 4 7 3 2 5 1
1 4 3 2 6 7 5
2 6 7 5 1 3 4
