59PrL4XW-36284865

3Rb4EueM-41227777

3kJcjkL6-51766170

jDMutwvW-90764917

9oDXJFjd-52051105

LSpkzi5G-47576229
v9Lz1evG-53940121
QKE5npU2-20497318

i3NOMAJ8-06627553
ORLQVUc8-45548160

Y2cv8Usf-98760386

YNsKgx6C-24120288
1hNd0b6s-08608238
DriNxaSE-61103155

erwOsLAB-03806019
oksYR2Dd-94629304

eILNunCy-58223028

18qW98i3-74392967

fqVwZ8cz-30103873

lIxhjuGS-78343782

i4wjEEOA-83201340

IZmy57X5-37422311

YXiPfj8v-36715792

WBmoW9Xa-54592668

f9c4fDya-53418111

H3X1Z00e-15616519
m_od2dPT-39953267

F2VqbQq2-04941584
